<?xml version="1.0" encoding="UTF-8"?>
<svg width="32px" height="29px" viewBox="0 0 32 29" version="1.1" xmlns="http://www.w3.org/2000/svg" xmlns:xlink="http://www.w3.org/1999/xlink">
    <!-- Generator: Sketch 44.1 (41455) - http://www.bohemiancoding.com/sketch -->
    <title>Icons/heart</title>
    <desc>Created with Sketch.</desc>
    <defs>
        <path d="M30.372549,23.4253521 C30.7908518,23.8309879 31,24.3380251 31,24.9464789 C31,25.5295804 30.7908518,26.0176037 30.372549,26.4105634 C29.9542463,26.8035231 29.4313757,27 28.8039216,27 L15.4705882,27 C14.7908463,27 14.2549039,26.7971851 13.8627451,26.3915493 C13.4705863,25.9859135 13.2745098,25.4662004 13.2745098,24.8323944 C13.2745098,24.1985884 13.5098016,23.6408475 13.9803922,23.1591549 L22.5294118,14.2985915 C23.4967369,13.284502 24.2614351,12.2640896 24.8235294,11.2373239 C25.3856237,10.2105582 25.6666667,9.26620149 25.6666667,8.40422535 C25.6666667,7.26337458 25.2483702,6.27465207 24.4117647,5.43802817 C23.5751592,4.60140427 22.6078486,4.18309859 21.5098039,4.18309859 C20.7516302,4.18309859 19.986932,4.43027922 19.2156863,4.92464789 C18.4444406,5.41901656 17.7451012,6.07182693 17.1176471,6.88309859 C16.6470565,7.49155234 16.0457553,7.79577465 15.3137255,7.79577465 C14.7385592,7.79577465 14.2091527,7.58028385 13.7254902,7.14929577 C13.2418276,6.7183077 13,6.23662238 13,5.70422535 C13,5.32394176 13.1307176,4.93732591 13.3921569,4.5443662 C13.6535961,4.15140649 14.045749,3.70141099 14.5686275,3.1943662 C15.5620965,2.2309811 16.7124118,1.45774939 18.0196078,0.874647887 C19.3268039,0.29154638 20.5816933,0 21.7843137,0 C23.5098125,0 25.0261373,0.354926028 26.3333333,1.06478873 C27.6405294,1.77465144 28.6470553,2.75069801 29.3529412,3.99295775 C30.0588271,5.23521748 30.4117647,6.64224566 30.4117647,8.21408451 C30.4117647,9.76057111 29.9869324,11.3514003 29.1372549,12.9866197 C28.2875775,14.6218392 27.143798,16.1873165 25.7058824,17.6830986 L20.7254902,22.8169014 L28.8039216,22.8169014 C29.4313757,22.8169014 29.9542463,23.0197163 30.372549,23.4253521 Z" id="path-1"></path>
    </defs>
    <g id="Mobile" stroke="none" stroke-width="1" fill="none" fill-rule="evenodd">
        <g id="Mobile/FAQ" transform="translate(-34.000000, -2539.000000)">
            <g id="Programs-Box" transform="translate(0.000000, 2484.000000)">
                <g id="Group-6" transform="translate(16.000000, 35.000000)">
                    <g id="Icons/heart" transform="translate(18.000000, 21.000000)">
                        <path d="M17.372549,23.4253521 C17.7908518,23.8309879 18,24.3380251 18,24.9464789 C18,25.5295804 17.7908518,26.0176037 17.372549,26.4105634 C16.9542463,26.8035231 16.4313757,27 15.8039216,27 L2.47058824,27 C1.79084627,27 1.25490392,26.7971851 0.862745098,26.3915493 C0.470586275,25.9859135 0.274509804,25.4662004 0.274509804,24.8323944 C0.274509804,24.1985884 0.509801569,23.6408475 0.980392157,23.1591549 L9.52941176,14.2985915 C10.4967369,13.284502 11.2614351,12.2640896 11.8235294,11.2373239 C12.3856237,10.2105582 12.6666667,9.26620149 12.6666667,8.40422535 C12.6666667,7.26337458 12.2483702,6.27465207 11.4117647,5.43802817 C10.5751592,4.60140427 9.60784863,4.18309859 8.50980392,4.18309859 C7.7516302,4.18309859 6.98693196,4.43027922 6.21568627,4.92464789 C5.44444059,5.41901656 4.74510118,6.07182693 4.11764706,6.88309859 C3.64705647,7.49155234 3.04575529,7.79577465 2.31372549,7.79577465 C1.73855922,7.79577465 1.20915275,7.58028385 0.725490196,7.14929577 C0.241827647,6.7183077 0,6.23662238 0,5.70422535 C0,5.32394176 0.130717647,4.93732591 0.392156863,4.5443662 C0.653596078,4.15140649 1.04574902,3.70141099 1.56862745,3.1943662 C2.56209647,2.2309811 3.71241176,1.45774939 5.01960784,0.874647887 C6.32680392,0.29154638 7.58169333,0 8.78431373,0 C10.5098125,0 12.0261373,0.354926028 13.3333333,1.06478873 C14.6405294,1.77465144 15.6470553,2.75069801 16.3529412,3.99295775 C17.0588271,5.23521748 17.4117647,6.64224566 17.4117647,8.21408451 C17.4117647,9.76057111 16.9869324,11.3514003 16.1372549,12.9866197 C15.2875775,14.6218392 14.143798,16.1873165 12.7058824,17.6830986 L7.7254902,22.8169014 L15.8039216,22.8169014 C16.4313757,22.8169014 16.9542463,23.0197163 17.372549,23.4253521 Z" id="2" fill="#F05145" transform="translate(9.000000, 13.500000) scale(-1, 1) translate(-9.000000, -13.500000) "></path>
                        <g id="2-copy-2">
                            <use fill="#F05145" fill-rule="evenodd" xlink:href="#path-1"></use>
                            <path stroke="#FDFDFD" stroke-width="1" d="M21.9071708,22.3169014 L28.8039216,22.3169014 C29.5587377,22.3169014 30.2070358,22.568368 30.7206259,23.0664057 C31.2372519,23.5673874 31.5,24.2043666 31.5,24.9464789 C31.5,25.6669923 31.2342495,26.2870905 30.7148908,26.7749837 C30.2014773,27.2572918 29.5555744,27.5 28.8039216,27.5 L15.4705882,27.5 C14.6616853,27.5 13.9949993,27.2477082 13.5032705,26.7390806 C13.0178843,26.2370135 12.7745098,25.5919341 12.7745098,24.8323944 C12.7745098,24.0657182 13.0623919,23.3833159 13.6205696,22.8119839 L22.1676147,13.9534787 C23.1061129,12.9696096 23.8447954,11.9839127 24.3849485,10.9972265 C24.9093781,10.039262 25.1666667,9.17472458 25.1666667,8.40422535 C25.1666667,7.39736129 24.801988,6.53537465 24.0582074,5.79157767 C23.3134817,5.04683557 22.4723585,4.68309859 21.5098039,4.68309859 C20.8524915,4.68309859 20.1798452,4.90052442 19.4855118,5.34559231 C18.7638976,5.80814718 18.1065561,6.42175386 17.5131569,7.18899398 C16.949215,7.91814701 16.2028268,8.29577465 15.3137255,8.29577465 C14.6116363,8.29577465 13.9652793,8.03268001 13.392849,7.52259169 C12.8080243,7.00145876 12.5,6.38791942 12.5,5.70422535 C12.5,5.21918209 12.6625972,4.73827792 12.9758708,4.2674078 C13.2595597,3.84100545 13.674086,3.36533656 14.2205506,2.83541983 C15.2564263,1.8309122 16.4556983,1.02477222 17.8159188,0.41801809 C19.1846115,-0.192515233 20.5081037,-0.5 21.7843137,-0.5 C23.5901821,-0.5 25.1884662,-0.125889748 26.5719421,0.625396125 C27.9603303,1.37934959 29.0351464,2.42161842 29.787661,3.7459381 C30.5374537,5.06546764 30.9117647,6.55770343 30.9117647,8.21408451 C30.9117647,9.84478171 30.4660876,11.5136661 29.580934,13.2171601 C28.7085048,14.8961658 27.5364654,16.5003222 26.0647571,18.0312493 L21.9071708,22.3169014 Z"></path>
                        </g>
                    </g>
                </g>
            </g>
        </g>
    </g>
</svg>