<?xml version="1.0" encoding="UTF-8"?>
<svg width="24px" height="16px" viewBox="0 0 24 16" version="1.1" xmlns="http://www.w3.org/2000/svg" xmlns:xlink="http://www.w3.org/1999/xlink">
    <!-- Generator: Sketch 44.1 (41455) - http://www.bohemiancoding.com/sketch -->
    <title>Icons/arrow-right-green</title>
    <desc>Created with Sketch.</desc>
    <defs></defs>
    <g id="Home" stroke="none" stroke-width="1" fill="none" fill-rule="evenodd" stroke-linecap="round" stroke-linejoin="round">
        <g id="Home-Mobile" transform="translate(-162.000000, -2720.000000)" stroke="#47D1C6" stroke-width="1.44000006">
            <g id="Airports" transform="translate(0.000000, 2356.000000)">
                <path d="M163,372.131973 L184.741176,372.131973 L163,372.131973 Z M184.741176,372.131973 L177.475654,365.228386 L184.741176,372.131973 Z M184.741176,372.131973 L177.475654,379 L184.741176,372.131973 Z" id="Icons/arrow-right-green"></path>
            </g>
        </g>
    </g>
</svg>