<?xml version="1.0" encoding="UTF-8"?>
<svg width="20px" height="14px" viewBox="0 0 20 14" version="1.1" xmlns="http://www.w3.org/2000/svg" xmlns:xlink="http://www.w3.org/1999/xlink">
    <!-- Generator: Sketch 44.1 (41455) - http://www.bohemiancoding.com/sketch -->
    <title>Icons/arrow-right</title>
    <desc>Created with Sketch.</desc>
    <defs></defs>
    <g id="Home" stroke="none" stroke-width="1" fill="none" fill-rule="evenodd" stroke-linecap="round" stroke-linejoin="round">
        <g id="Popup--cal" transform="translate(-258.000000, -121.000000)" stroke="#2E2929" stroke-width="1.68637785">
            <g id="Calendar-picker" transform="translate(16.000000, 17.000000)">
                <g id="cal--dates" transform="translate(17.000000, 102.000000)">
                    <g id="cal--month" transform="translate(66.000000, 0.000000)">
                        <path d="M160,9.11311971 L177.788235,9.11311971 L160,9.11311971 Z M177.788235,9.11311971 L171.843717,3.19575944 L177.788235,9.11311971 Z M177.788235,9.11311971 L171.843717,15 L177.788235,9.11311971 Z" id="Icons/arrow-right"></path>
                    </g>
                </g>
            </g>
        </g>
    </g>
</svg>