<?xml version="1.0" encoding="UTF-8"?>
<svg width="20px" height="20px" viewBox="0 0 20 20" version="1.1" xmlns="http://www.w3.org/2000/svg" xmlns:xlink="http://www.w3.org/1999/xlink">
    <!-- Generator: Sketch 44.1 (41455) - http://www.bohemiancoding.com/sketch -->
    <title>Icons/clock</title>
    <desc>Created with Sketch.</desc>
    <defs></defs>
    <g id="Home" stroke="none" stroke-width="1" fill="none" fill-rule="evenodd">
        <g id="Home-Mobile" transform="translate(-196.000000, -442.000000)" fill="#858383">
            <g id="Booking-Form" transform="translate(16.000000, 253.000000)">
                <g id="When" transform="translate(0.000000, 146.000000)">
                    <g id="Group-10" transform="translate(172.000000, 32.000000)">
                        <path d="M21.3193478,23.0893478 C21.658913,23.428913 21.658913,23.9795652 21.3193478,24.3191304 C21.1495652,24.488913 20.9271739,24.573913 20.7045652,24.573913 C20.4819565,24.573913 20.2595652,24.488913 20.0897826,24.3191304 L17.3852174,21.615 C17.2221739,21.4519565 17.1304348,21.2306522 17.1304348,21 L17.1304348,15.8176087 C17.1304348,15.3373913 17.5197826,14.9480435 18,14.9480435 C18.4802174,14.9480435 18.8695652,15.3373913 18.8695652,15.8176087 L18.8695652,20.6397826 L21.3193478,23.0893478 Z M18,29.2608696 C13.445,29.2608696 9.73913043,25.555 9.73913043,21 C9.73913043,16.445 13.445,12.7391304 18,12.7391304 C22.5552174,12.7391304 26.2608696,16.445 26.2608696,21 C26.2608696,25.555 22.5552174,29.2608696 18,29.2608696 L18,29.2608696 Z M18,11 C12.486087,11 8,15.486087 8,21 C8,26.513913 12.486087,31 18,31 C23.5141304,31 28,26.513913 28,21 C28,15.486087 23.5141304,11 18,11 L18,11 Z" id="Icons/clock"></path>
                    </g>
                </g>
            </g>
        </g>
    </g>
</svg>