<?xml version="1.0" encoding="UTF-8"?>
<svg width="22px" height="30px" viewBox="0 0 22 30" version="1.1" xmlns="http://www.w3.org/2000/svg" xmlns:xlink="http://www.w3.org/1999/xlink">
    <!-- Generator: Sketch 44.1 (41455) - http://www.bohemiancoding.com/sketch -->
    <title>Icons/icon-switch</title>
    <desc>Created with Sketch.</desc>
    <defs></defs>
    <g id="Mobile" stroke="none" stroke-width="1" fill="none" fill-rule="evenodd">
        <g id="Mobile/Home" transform="translate(-336.000000, -350.000000)" fill="#2E2929">
            <g id="Booking-Form" transform="translate(37.000000, 254.000000)">
                <g id="Schedule">
                    <path d="M315.247975,112.158231 C314.736403,111.662167 313.925814,111.662167 313.413915,112.158231 L305.151146,120.192759 L305.151146,116.584701 C305.151146,115.882843 304.546234,115.285787 303.822763,115.285787 L303.813265,115.285787 C303.089794,115.285787 302.498637,115.868551 302.498637,116.57041 L302.495689,123.254258 C302.495689,123.591213 302.632589,123.899904 302.878222,124.138091 C303.123855,124.376595 303.455951,124.495689 303.803439,124.495689 L310.68575,124.495689 C311.409222,124.495689 311.995793,123.927216 311.995793,123.225358 C311.995793,122.523182 311.409222,121.955026 310.68575,121.955026 L306.966211,121.955026 L315.247975,113.937965 C315.759547,113.441583 315.759547,112.654613 315.247975,112.158231 M316.810438,97.6112073 C317.056071,97.849712 317.197228,98.2092158 317.197228,98.5464887 L317.202796,105.196038 C317.202796,105.897896 316.628997,106.412698 315.905526,106.412698 L315.931072,106.412698 C315.2076,106.412698 314.672448,105.951885 314.672448,105.250027 L314.672448,101.641016 L306.479439,109.533902 C306.223325,109.781934 305.837518,109.899757 305.502147,109.899757 C305.166776,109.899757 304.831405,109.762879 304.575619,109.514847 C304.064047,109.018465 304.064047,108.188621 304.575619,107.692239 L312.716881,99.7434584 L308.997996,99.7434584 C308.274525,99.7434584 307.687953,99.1749852 307.687953,98.4731271 C307.687953,97.7712691 308.274525,97.2027958 308.997996,97.2027958 L315.880635,97.2027958 C316.228124,97.2027958 316.564477,97.3730202 316.810438,97.6112073" id="Icons/icon-switch" transform="translate(309.849242, 110.849242) rotate(-45.000000) translate(-309.849242, -110.849242) "></path>
                </g>
            </g>
        </g>
    </g>
</svg>