<?xml version="1.0" encoding="UTF-8"?>
<svg width="472px" height="73px" viewBox="0 0 472 73" version="1.1" xmlns="http://www.w3.org/2000/svg" xmlns:xlink="http://www.w3.org/1999/xlink">
    <!-- Generator: Sketch 44.1 (41455) - http://www.bohemiancoding.com/sketch -->
    <title>Logos/Full/T2A-white</title>
    <desc>Created with Sketch.</desc>
    <defs></defs>
    <g id="Symbols" stroke="none" stroke-width="1" fill="none" fill-rule="evenodd">
        <g id="Logos/Full/T2A-white" fill="#FFFFFF">
            <path d="M10.704,49 L10.704,22.312 L0.576,22.312 L0.576,15.16 L29.76,15.16 L29.76,22.312 L19.632,22.312 L19.632,49 L10.704,49 Z M60.8729549,45.5154946 L71.152,31.912 L58.48,15.16 L68.752,15.16 L76.144,25.528 L83.632,15.16 L93.856,15.16 L81.136,31.912 L94.096,49 L83.776,49 L76.144,38.344 L68.464,49 L60.372,49 L53.768,49 L50.744,41.992 L35.768,41.992 L32.744,49 L23.864,49 L39.656,15.16 L46.664,15.16 L60.8729549,45.5154946 Z M38.6,35.368 L47.912,35.368 L43.256,24.52 L38.6,35.368 Z M97.328,49 L97.328,15.16 L106.16,15.16 L106.16,49 L97.328,49 Z" id="TAXI"></path>
            <path d="M199.848,49 L196.824,41.992 L181.848,41.992 L178.824,49 L169.944,49 L185.736,15.16 L192.744,15.16 L208.584,49 L199.848,49 Z M184.68,35.368 L193.992,35.368 L189.336,24.52 L184.68,35.368 Z M210.6,49 L210.6,15.16 L219.432,15.16 L219.432,49 L210.6,49 Z M256.008,49 L246.312,49 L240.456,38.2 C239.719996,36.9519938 238.552008,36.328 236.952,36.328 L234.264,36.328 L234.264,49 L225.576,49 L225.576,15.16 L241.704,15.16 C245.80002,15.16 248.87999,16.0479911 250.944,17.824 C253.00801,19.6000089 254.04,22.1679832 254.04,25.528 C254.04,28.0880128 253.336007,30.2559911 251.928,32.032 C250.519993,33.8080089 248.536013,34.999997 245.976,35.608 C247.92801,36.0240021 249.479994,37.2879894 250.632,39.4 L256.008,49 Z M244.512,28.792 C245.360004,28.183997 245.784,27.1920069 245.784,25.816 C245.784,24.407993 245.360004,23.3920031 244.512,22.768 C243.663996,22.1439969 242.26401,21.832 240.312,21.832 L234.168,21.832 L234.168,29.704 L240.312,29.704 C242.26401,29.704 243.663996,29.400003 244.512,28.792 Z M259.512,15.16 L275.88,15.16 C279.624019,15.16 282.53599,16.1119905 284.616,18.016 C286.69601,19.9200095 287.736,22.567983 287.736,25.96 C287.736,29.3200168 286.68801,31.9599904 284.592,33.88 C282.49599,35.8000096 279.592019,36.76 275.88,36.76 L268.344,36.76 L268.344,49 L259.512,49 L259.512,15.16 Z M274.68,30.136 C276.312008,30.136 277.519996,29.8000034 278.304,29.128 C279.088004,28.4559966 279.48,27.416007 279.48,26.008 C279.48,24.599993 279.088004,23.5520034 278.304,22.864 C277.519996,22.1759966 276.312008,21.832 274.68,21.832 L268.344,21.832 L268.344,30.136 L274.68,30.136 Z M299.088,47.296 C296.543987,45.8719929 294.584007,43.856013 293.208,41.248 C291.831993,38.639987 291.144,35.5760176 291.144,32.056 C291.144,28.5359824 291.831993,25.472013 293.208,22.864 C294.584007,20.255987 296.543987,18.248007 299.088,16.84 C301.632013,15.431993 304.631983,14.728 308.088,14.728 C311.544017,14.728 314.543987,15.431993 317.088,16.84 C319.632013,18.248007 321.583993,20.255987 322.944,22.864 C324.304007,25.472013 324.984,28.5359824 324.984,32.056 C324.984,35.5760176 324.296007,38.639987 322.92,41.248 C321.543993,43.856013 319.584013,45.8719929 317.04,47.296 C314.495987,48.7200071 311.512017,49.432 308.088,49.432 C304.631983,49.432 301.632013,48.7200071 299.088,47.296 Z M314.088,39.952 C315.528007,38.143991 316.248,35.5120173 316.248,32.056 C316.248,28.5999827 315.520007,25.976009 314.064,24.184 C312.607993,22.391991 310.616013,21.496 308.088,21.496 C305.527987,21.496 303.528007,22.3839911 302.088,24.16 C300.647993,25.9360089 299.928,28.5679826 299.928,32.056 C299.928,35.5440174 300.647993,38.183991 302.088,39.976 C303.528007,41.768009 305.527987,42.664 308.088,42.664 C310.648013,42.664 312.647993,41.760009 314.088,39.952 Z M360.648,49 L350.952,49 L345.096,38.2 C344.359996,36.9519938 343.192008,36.328 341.592,36.328 L338.904,36.328 L338.904,49 L330.216,49 L330.216,15.16 L346.344,15.16 C350.44002,15.16 353.51999,16.0479911 355.584,17.824 C357.64801,19.6000089 358.68,22.1679832 358.68,25.528 C358.68,28.0880128 357.976007,30.2559911 356.568,32.032 C355.159993,33.8080089 353.176013,34.999997 350.616,35.608 C352.56801,36.0240021 354.119994,37.2879894 355.272,39.4 L360.648,49 Z M349.152,28.792 C350.000004,28.183997 350.424,27.1920069 350.424,25.816 C350.424,24.407993 350.000004,23.3920031 349.152,22.768 C348.303996,22.1439969 346.90401,21.832 344.952,21.832 L338.808,21.832 L338.808,29.704 L344.952,29.704 C346.90401,29.704 348.303996,29.400003 349.152,28.792 Z M371.784,49 L371.784,22.312 L361.656,22.312 L361.656,15.16 L390.84,15.16 L390.84,22.312 L380.712,22.312 L380.712,49 L371.784,49 Z" id="AIRPORT"></path>
            <path d="M159.527227,6.29863043 C165.070545,11.1801087 168,18.5999239 168,27.7574565 C168,47.703913 144.769136,71.0766087 143.780606,72.0613152 C143.17753,72.6627717 142.35603,73 141.5,73 C140.64397,73 139.82247,72.6627717 139.219394,72.0613152 C138.230864,71.0766087 115,47.703913 115,27.7574565 C115,18.5999239 117.929455,11.1801087 123.472773,6.29863043 C128.085379,2.2376087 134.487939,0 141.5,0 C148.512061,0 154.914621,2.2376087 159.527227,6.29863043 Z M153.950001,42.8299999 C153.363331,42.2433303 152.630005,41.9499999 151.750001,41.9499999 L140.42,41.9499999 L147.405,34.5249997 C149.421677,32.3616555 151.025828,30.0975114 152.217501,27.7324996 C153.409173,25.3674877 154.005001,23.0666773 154.005001,20.8299994 C154.005001,18.5566547 153.510006,16.521675 152.520001,14.7249993 C151.529996,12.9283236 150.118343,11.516671 148.285,10.4899992 C146.451658,9.46332736 144.325012,8.94999915 141.905,8.94999915 C140.218325,8.94999915 138.458343,9.37166161 136.625,10.2149992 C134.791658,11.0583367 133.17834,12.1766589 131.785,13.5699993 C131.051663,14.3033363 130.501669,14.9541631 130.135,15.5224993 C129.768332,16.0908355 129.585,16.6499966 129.585,17.1999993 C129.585,17.9700032 129.924163,18.6666629 130.6025,19.2899994 C131.280837,19.9133358 132.023329,20.2249994 132.83,20.2249994 C133.856672,20.2249994 134.699997,19.7850038 135.36,18.9049994 C136.240005,17.7316601 137.220828,16.7875029 138.3025,16.0724993 C139.384172,15.3574957 140.456662,14.9999993 141.52,14.9999993 C143.060008,14.9999993 144.416661,15.6049932 145.59,16.8149993 C146.76334,18.0250054 147.35,19.4549911 147.35,21.1049994 C147.35,22.3516723 146.955838,23.717492 146.1675,25.2024995 C145.379163,26.687507 144.306674,28.1633256 142.95,29.6299996 L130.96,42.4449999 C130.299997,43.14167 129.97,43.9483287 129.97,44.8649999 C129.97,45.7816712 130.244997,46.5333304 130.795,47.12 C131.345003,47.7066696 132.096662,48 133.05,48 L151.750001,48 C152.630005,48 153.363331,47.7158362 153.950001,47.1475 C154.53667,46.5791638 154.830001,45.8733375 154.830001,45.0299999 C154.830001,44.1499955 154.53667,43.4166695 153.950001,42.8299999 Z" id="Combined-Shape"></path>
            <path d="M400.8,47.72 C399.001324,45.9973247 398.102,43.6540148 398.102,40.69 C398.102,38.7393236 398.538996,37.0166741 399.413,35.522 C400.287004,34.0273259 401.515659,32.8746707 403.099,32.064 C404.682341,31.2533293 406.512656,30.848 408.59,30.848 C409.98334,30.848 411.332327,31.0506646 412.637,31.456 C413.941673,31.8613354 414.999329,32.4059966 415.81,33.09 L414.1,37.65 C413.466663,37.1433308 412.700338,36.7316682 411.801,36.415 C410.901662,36.0983317 410.059337,35.94 409.274,35.94 C407.905993,35.94 406.861004,36.3199962 406.139,37.08 C405.416996,37.8400038 405.056,38.9926589 405.056,40.538 C405.056,42.0833411 405.416996,43.2486627 406.139,44.034 C406.861004,44.8193373 407.905993,45.212 409.274,45.212 C410.059337,45.212 410.901662,45.0536682 411.801,44.737 C412.700338,44.4203317 413.466663,43.9960027 414.1,43.464 L415.81,48.062 C414.948662,48.7713369 413.853007,49.3223314 412.523,49.715 C411.192993,50.1076686 409.780674,50.304 408.286,50.304 C405.093984,50.304 402.598676,49.4426753 400.8,47.72 Z M421.985,49.107 C420.426992,48.308996 419.223671,47.1753407 418.375,45.706 C417.526329,44.2366593 417.102,42.5140099 417.102,40.538 C417.102,38.5619901 417.526329,36.8456739 418.375,35.389 C419.223671,33.932326 420.420659,32.8113373 421.966,32.026 C423.511341,31.2406627 425.322656,30.848 427.4,30.848 C429.477344,30.848 431.288659,31.2406627 432.834,32.026 C434.379341,32.8113373 435.576329,33.932326 436.425,35.389 C437.273671,36.8456739 437.698,38.5619901 437.698,40.538 C437.698,42.5140099 437.273671,44.2366593 436.425,45.706 C435.576329,47.1753407 434.379341,48.308996 432.834,49.107 C431.288659,49.905004 429.477344,50.304 427.4,50.304 C425.34799,50.304 423.543008,49.905004 421.985,49.107 Z M431.01,40.538 C431.01,37.396651 429.806679,35.826 427.4,35.826 C424.993321,35.826 423.79,37.396651 423.79,40.538 C423.79,43.679349 424.993321,45.25 427.4,45.25 C429.806679,45.25 431.01,43.679349 431.01,40.538 Z M469.485,32.824 C470.536339,34.1413399 471.062,36.1679863 471.062,38.904 L471.062,50 L464.298,50 L464.298,39.094 C464.298,38.0046612 464.133335,37.2193357 463.804,36.738 C463.474665,36.2566643 462.930004,36.016 462.17,36.016 C461.232662,36.016 460.517002,36.34533 460.023,37.004 C459.528998,37.66267 459.282,38.5999939 459.282,39.816 L459.282,50 L452.518,50 L452.518,39.094 C452.518,38.0046612 452.353335,37.2193357 452.024,36.738 C451.694665,36.2566643 451.150004,36.016 450.39,36.016 C449.452662,36.016 448.743336,36.34533 448.262,37.004 C447.780664,37.66267 447.54,38.5999939 447.54,39.816 L447.54,50 L440.776,50 L440.776,31.304 L447.35,31.304 L447.35,33.66 C448.59134,31.785324 450.491321,30.848 453.05,30.848 C455.735347,30.848 457.546662,31.949989 458.484,34.154 C459.14267,33.1153281 460.010328,32.3046696 461.087,31.722 C462.163672,31.1393304 463.347994,30.848 464.64,30.848 C466.818678,30.848 468.433661,31.5066601 469.485,32.824 Z M392.5,50 C390.567003,50 389,48.4329966 389,46.5 C389,44.5670034 390.567003,43 392.5,43 C394.432997,43 396,44.5670034 396,46.5 C396,48.4329966 394.432997,50 392.5,50 Z" id="com"></path>
        </g>
    </g>
</svg>