<?xml version="1.0" encoding="UTF-8"?>
<svg width="21px" height="20px" viewBox="0 0 21 20" version="1.1" xmlns="http://www.w3.org/2000/svg" xmlns:xlink="http://www.w3.org/1999/xlink">
    <!-- Generator: Sketch 44.1 (41455) - http://www.bohemiancoding.com/sketch -->
    <title>Icons/clock</title>
    <desc>Created with Sketch.</desc>
    <defs></defs>
    <g id="Desktop" stroke="none" stroke-width="1" fill="none" fill-rule="evenodd">
        <g id="Desktop/Home" transform="translate(-347.000000, -645.000000)" fill="#666565">
            <g id="Booking-Form" transform="translate(70.000000, 417.000000)">
                <g id="When" transform="translate(20.000000, 185.000000)">
                    <g id="Group-10" transform="translate(245.617778, 32.000000)">
                        <path d="M25.1904294,23.0893478 C25.5343761,23.428913 25.5343761,23.9795652 25.1904294,24.3191304 C25.018456,24.488913 24.7931952,24.573913 24.5677141,24.573913 C24.342233,24.573913 24.1169722,24.488913 23.9449988,24.3191304 L21.205536,21.615 C21.0403887,21.4519565 20.9474659,21.2306522 20.9474659,21 L20.9474659,15.8176087 C20.9474659,15.3373913 21.3418375,14.9480435 21.8282513,14.9480435 C22.314665,14.9480435 22.7090367,15.3373913 22.7090367,15.8176087 L22.7090367,20.6397826 L25.1904294,23.0893478 Z M21.8282513,29.2608696 C17.2144771,29.2608696 13.4607898,25.555 13.4607898,21 C13.4607898,16.445 17.2144771,12.7391304 21.8282513,12.7391304 C26.4422457,12.7391304 30.1957127,16.445 30.1957127,21 C30.1957127,25.555 26.4422457,29.2608696 21.8282513,29.2608696 L21.8282513,29.2608696 Z M21.8282513,11 C16.243191,11 11.699219,15.486087 11.699219,21 C11.699219,26.513913 16.243191,31 21.8282513,31 C27.4135318,31 31.9572835,26.513913 31.9572835,21 C31.9572835,15.486087 27.4135318,11 21.8282513,11 L21.8282513,11 Z" id="Icons/clock"></path>
                    </g>
                </g>
            </g>
        </g>
    </g>
</svg>