<?xml version="1.0" encoding="UTF-8"?>
<svg width="36px" height="38px" viewBox="0 0 36 38" version="1.1" xmlns="http://www.w3.org/2000/svg" xmlns:xlink="http://www.w3.org/1999/xlink">
    <!-- Generator: Sketch 44.1 (41455) - http://www.bohemiancoding.com/sketch -->
    <title>Icons/globe</title>
    <desc>Created with Sketch.</desc>
    <defs></defs>
    <g id="iPad" stroke="none" stroke-width="1" fill="none" fill-rule="evenodd">
        <g id="iPad/Home" transform="translate(-567.000000, -2415.000000)">
            <g id="Global" transform="translate(393.000000, 2394.000000)">
                <g id="Icons/globe" transform="translate(174.000000, 22.000000)">
                    <path d="M9.98225037,19.2476996 L11.6062422,19.4759368 C10.0762945,22.9669228 6.77685313,25.5058988 2.84243478,25.9636522 C4.63930435,30.1271304 8.19078261,33.364 12.564,34.7288696 C12.9866087,29.872 17.7057391,26.0434783 23.4782609,26.0434783 C26.114087,26.0434783 28.5026087,26.8714783 30.3902609,28.201913 C31.4092174,26.6147826 32.1182609,24.8194783 32.5126957,22.9130435 L34.1373913,22.9130435 C32.6629565,30.9253913 25.6554783,37 17.2173913,37 C7.70869565,37 0,29.2913043 0,19.7826087 L1.56521739,19.7826087 C1.56521739,21.4041739 1.81408696,22.9693913 2.27426087,24.4422609 C5.65563652,24.1878661 8.54425376,22.1398917 9.98225037,19.2476996 Z M10.7848132,13.301527 C10.3416383,11.028597 9.0692588,9.05224378 7.30330435,7.68191304 C6.336,8.47547826 5.47826087,9.39113043 4.72382609,10.3913043 L2.79704348,10.3913043 C5.86956522,5.68313043 11.1756522,2.56521739 17.2173913,2.56521739 L17.2173913,4.13043478 C14.0368696,4.13043478 11.0786087,5.08991304 8.60556522,6.72556522 C10.6157985,8.41790732 12.0190985,10.8072223 12.4107785,13.5300415 L10.7848132,13.301527 Z M17.2173913,35.4347826 C22.190087,35.4347826 26.618087,33.0963478 29.4871304,29.4697391 C27.8546087,28.3255652 25.7744348,27.6086957 23.4782609,27.6086957 C18.4257391,27.6086957 14.3045217,30.952 14.1057391,35.1217391 C15.1121739,35.3252174 16.1514783,35.4347826 17.2173913,35.4347826 Z M2.89721739,13.5217391 C2.45895652,14.5172174 2.12086957,15.5627826 1.8986087,16.6521739 L0.297391304,16.6521739 C0.49773913,15.5690435 0.799826087,14.5234783 1.19113043,13.5217391 L2.89721739,13.5217391 Z" id="icon" fill="#FFFFFF"></path>
                    <g id="Group-12" transform="translate(18.000000, 0.000000)" stroke="#FDFDFD" stroke-linecap="round" stroke-linejoin="round">
                        <path d="M17,8.69767442 C17,15.3488372 8.5,22 8.5,22 C8.5,22 0,15.380814 0,8.69767442 C0,3.8940815 3.80557965,0 8.5,0 C13.1944204,0 17,3.8940815 17,8.69767442 Z" id="Shape" stroke-width="2"></path>
                        <ellipse id="Oval" cx="8.5" cy="8.69767442" rx="3.5" ry="3.58139535"></ellipse>
                    </g>
                </g>
            </g>
        </g>
    </g>
</svg>