<?xml version="1.0" encoding="UTF-8"?>
<svg width="15px" height="18px" viewBox="0 0 15 18" version="1.1" xmlns="http://www.w3.org/2000/svg" xmlns:xlink="http://www.w3.org/1999/xlink">
    <!-- Generator: Sketch 44.1 (41455) - http://www.bohemiancoding.com/sketch -->
    <title>Icons/icon-location</title>
    <desc>Created with Sketch.</desc>
    <defs></defs>
    <g id="iPad" stroke="none" stroke-width="1" fill="none" fill-rule="evenodd" stroke-linecap="round" stroke-linejoin="round">
        <g id="iPad/Airport-Home" transform="translate(-41.000000, -1075.000000)" stroke="#2E2929">
            <g id="Popular-Transfers" transform="translate(32.000000, 959.000000)">
                <g id="Components/Popular-Transfers/Row" transform="translate(0.000000, 74.000000)">
                    <g id="Destination" transform="translate(10.000000, 41.000000)">
                        <g id="Icons/icon-location" transform="translate(0.000000, 2.000000)">
                            <path d="M13,6.3255814 C13,11.1627907 6.5,16 6.5,16 C6.5,16 0,11.1860465 0,6.3255814 C0,2.83205927 2.91014914,0 6.5,0 C10.0898509,0 13,2.83205927 13,6.3255814 Z" id="Shape" stroke-width="1.48837209"></path>
                            <ellipse id="Oval" stroke-width="0.744186047" cx="6.5" cy="6.3255814" rx="2.67647059" ry="2.60465116"></ellipse>
                        </g>
                    </g>
                </g>
            </g>
        </g>
    </g>
</svg>