<?xml version="1.0" encoding="UTF-8"?>
<svg width="90px" height="110px" viewBox="0 0 90 110" version="1.1" xmlns="http://www.w3.org/2000/svg" xmlns:xlink="http://www.w3.org/1999/xlink">
    <!-- Generator: Sketch 44.1 (41455) - http://www.bohemiancoding.com/sketch -->
    <title>Logos/Mark/T2A-Mark-black</title>
    <desc>Created with Sketch.</desc>
    <defs></defs>
    <g id="Symbols" stroke="none" stroke-width="1" fill="none" fill-rule="evenodd">
        <g id="Logos/Mark/T2A-Mark-black" fill="#000000">
            <path d="M63.5272273,25.2986304 C69.0705455,30.1801087 72,37.5999239 72,46.7574565 C72,66.703913 48.7691364,90.0766087 47.7806061,91.0613152 C47.1775303,91.6627717 46.3560303,92 45.5,92 C44.6439697,92 43.8224697,91.6627717 43.2193939,91.0613152 C42.2308636,90.0766087 19,66.703913 19,46.7574565 C19,37.5999239 21.9294545,30.1801087 27.4727727,25.2986304 C32.0853788,21.2376087 38.4879394,19 45.5,19 C52.5120606,19 58.9146212,21.2376087 63.5272273,25.2986304 Z M58.1285403,61.8366197 C57.5475643,61.2507013 56.8213551,60.9577465 55.9498911,60.9577465 L44.7298475,60.9577465 L51.6470588,53.5422535 C53.6441639,51.3816793 55.2327465,49.1204343 56.412854,46.7584507 C57.5929616,44.3964671 58.1830065,42.0986027 58.1830065,39.8647887 C58.1830065,37.5943548 57.6928154,35.5619808 56.7124183,33.7676056 C55.7320212,31.9732305 54.3340686,30.5633854 52.5185185,29.5380282 C50.7029684,28.5126709 48.5969619,28 46.2004357,28 C44.5301296,28 42.7872277,28.4211225 40.9716776,29.2633803 C39.1561275,30.105638 37.5584673,31.2225283 36.1786492,32.6140845 C35.4524292,33.3464825 34.9077723,33.996476 34.5446623,34.5640845 C34.1815523,35.131693 34,35.6901381 34,36.2394366 C34,37.0084545 34.3358717,37.7042222 35.0076253,38.3267606 C35.6793788,38.9492989 36.4146656,39.2605634 37.2135076,39.2605634 C38.2302157,39.2605634 39.0653562,38.8211312 39.7189542,37.9422535 C40.5904183,36.7704167 41.561723,35.8274684 42.6328976,35.1133803 C43.7040722,34.3992922 44.7661531,34.0422535 45.8191721,34.0422535 C47.3442342,34.0422535 48.6877211,34.6464728 49.8496732,35.8549296 C51.0116253,37.0633863 51.5925926,38.4915411 51.5925926,40.1394366 C51.5925926,41.3845133 51.2022552,42.7485841 50.4215686,44.2316901 C49.6408821,45.7147961 48.5788012,47.1887251 47.2352941,48.6535211 L35.3616558,61.4521127 C34.7080577,62.1478908 34.3812636,62.9535165 34.3812636,63.8690141 C34.3812636,64.7845116 34.653592,65.5352083 35.1982571,66.1211268 C35.7429221,66.7070452 36.4872865,67 37.4313725,67 L55.9498911,67 C56.8213551,67 57.5475643,66.7162 58.1285403,66.1485915 C58.7095163,65.5809831 59,64.8760605 59,64.0338028 C59,63.1549252 58.7095163,62.4225381 58.1285403,61.8366197 Z" id="Combined-Shape"></path>
        </g>
    </g>
</svg>