<?xml version="1.0" encoding="UTF-8"?>
<svg width="32px" height="32px" viewBox="0 0 32 32" version="1.1" xmlns="http://www.w3.org/2000/svg" xmlns:xlink="http://www.w3.org/1999/xlink">
    <!-- Generator: Sketch 44.1 (41455) - http://www.bohemiancoding.com/sketch -->
    <title>Icons/Social/facebook</title>
    <desc>Created with Sketch.</desc>
    <defs></defs>
    <g id="Desktop" stroke="none" stroke-width="1" fill="none" fill-rule="evenodd">
        <g id="Desktop/Airport-Home" transform="translate(-544.000000, -2212.000000)">
            <g id="Programs-Box*" transform="translate(0.000000, 2044.000000)">
                <g id="social" transform="translate(442.000000, 168.000000)">
                    <g id="Icons/Social/facebook" transform="translate(102.000000, 0.000000)">
                        <circle id="Oval-5" fill="#FFFFFF" cx="16" cy="16" r="16"></circle>
                        <path d="M17.9900166,25 L13.9916805,25 L13.9916805,16.5029191 L12,16.5029191 L12,13.2301918 L13.9916805,13.2301918 L13.9916805,11.263553 C13.9916805,8.59132611 15.1297837,7 18.3194676,7 L20.985025,7 L20.985025,10.2727273 L19.3227953,10.2727273 C18.0798669,10.2727273 17.9900166,10.7381151 17.9900166,11.5788157 L17.9900166,13.2301918 L21,13.2301918 L20.655574,16.5029191 L17.9900166,16.5029191 L17.9900166,25 L17.9900166,25 Z" id="Shape" fill="#3B5998"></path>
                    </g>
                </g>
            </g>
        </g>
    </g>
</svg>