<?xml version="1.0" encoding="UTF-8"?>
<svg width="28px" height="37px" viewBox="0 0 28 37" version="1.1" xmlns="http://www.w3.org/2000/svg" xmlns:xlink="http://www.w3.org/1999/xlink">
    <!-- Generator: Sketch 44.1 (41455) - http://www.bohemiancoding.com/sketch -->
    <title>Icons/business-pin</title>
    <desc>Created with Sketch.</desc>
    <defs></defs>
    <g id="Mobile" stroke="none" stroke-width="1" fill="none" fill-rule="evenodd">
        <g id="Mobile/Customer--TripDetail2" transform="translate(-35.000000, -973.000000)" stroke="#F05145">
            <g id="Programs-Box" transform="translate(0.000000, 798.000000)">
                <g id="Group-4" transform="translate(16.000000, 160.000000)">
                    <g id="Icons/business-pin" transform="translate(21.000000, 17.000000)">
                        <path d="M20.1632727,2.88122283 C18.0745455,1.02356366 15.1752727,0 12,0 C8.82472727,0 5.92545455,1.02356366 3.83672727,2.88122283 C1.32654545,5.11418866 0,8.50828222 0,12.697271 C0,21.8215062 10.5196364,32.513028 10.9672727,32.9634686 C11.2403636,33.2385967 11.6123636,33.3928571 12,33.3928571 C12.3876364,33.3928571 12.7596364,33.2385967 13.0327273,32.9634686 C13.4803636,32.513028 24,21.8215062 24,12.697271 C24,8.50828222 22.6734545,5.11418866 20.1632727,2.88122283" id="location-copy" stroke-width="2.39999986"></path>
                        <g id="Group-137" transform="translate(8.800000, 3.238095)" stroke-linecap="round" stroke-width="1.75999974" stroke-linejoin="round">
                            <polygon id="Stroke-127" points="0.533333333 0.607142857 3.2 4.14880952 5.86666667 0.607142857"></polygon>
                            <polygon id="Stroke-129" points="3.2 4.14880952 0.533333333 18.3154762 3.2 21.8571429 5.86666667 18.3154762"></polygon>
                        </g>
                    </g>
                </g>
            </g>
        </g>
    </g>
</svg>